\relax 
\@writefile{toc}{\contentsline {section}{\numberline {1}Introduction}{1}}
\@writefile{toc}{\contentsline {subsection}{\numberline {1.1}GMlib}{1}}
\@writefile{toc}{\contentsline {subsection}{\numberline {1.2}QT}{1}}
\citation{laksaa:blend_2012}
\@writefile{toc}{\contentsline {section}{\numberline {2}Parametric curves}{2}}
\@writefile{toc}{\contentsline {subsection}{\numberline {2.1}Subcurve}{2}}
\@writefile{toc}{\contentsline {subsection}{\numberline {2.2}Bezier curves}{2}}
\@writefile{toc}{\contentsline {subsection}{\numberline {2.3}ERBS}{2}}
\@writefile{toc}{\contentsline {section}{\numberline {3}Project}{2}}
\@writefile{toc}{\contentsline {subsection}{\numberline {3.1}Custom curve}{2}}
\@writefile{toc}{\contentsline {subsection}{\numberline {3.2}ERBS using subcurves}{3}}
\@writefile{lof}{\contentsline {figure}{\numberline {1}{\ignorespaces Unmanipulated custom curve.}}{3}}
\newlabel{fig::custom_curve}{{1}{3}}
\newlabel{fig::custom_curve@cref}{{[figure][1][]1}{3}}
\@writefile{toc}{\contentsline {subsection}{\numberline {3.3}ERBS using bezier curves}{3}}
\@writefile{lof}{\contentsline {figure}{\numberline {2}{\ignorespaces Custom curve animated using local rotations and translations.}}{4}}
\newlabel{fig::custom_curve-animated}{{2}{4}}
\newlabel{fig::custom_curve-animated@cref}{{[figure][2][]2}{4}}
\@writefile{lof}{\contentsline {figure}{\numberline {3}{\ignorespaces Custom curve animated with subcurves visible in blue.}}{4}}
\newlabel{fig::custom_curve-subcurves}{{3}{4}}
\newlabel{fig::custom_curve-subcurves@cref}{{[figure][3][]3}{4}}
\@writefile{toc}{\contentsline {section}{\numberline {4}Code structure and style}{4}}
\@writefile{lof}{\contentsline {figure}{\numberline {4}{\ignorespaces Circle of bezier curves animated using local rotations only.}}{5}}
\newlabel{fig::circle-bezier-no-translate}{{4}{5}}
\newlabel{fig::circle-bezier-no-translate@cref}{{[figure][4][]4}{5}}
\@writefile{lof}{\contentsline {figure}{\numberline {5}{\ignorespaces Circle of bezier curves exibiting undesired behaviour when translated.}}{5}}
\newlabel{fig::circle-bezier-translation-error}{{5}{5}}
\newlabel{fig::circle-bezier-translation-error@cref}{{[figure][5][]5}{5}}
\@writefile{toc}{\contentsline {subsection}{\numberline {4.1}Code structure}{5}}
\@writefile{toc}{\contentsline {subsection}{\numberline {4.2}Coding guidelines}{6}}
\bibstyle{apalike}
\bibdata{bibliography}
\bibcite{laksaa:blend_2012}{Laks{\r a}, 2012}
\@writefile{toc}{\contentsline {section}{\numberline {5}Tesselation}{7}}
\@writefile{lof}{\contentsline {figure}{\numberline {6}{\ignorespaces Delauney triangulation (wikipedia).}}{7}}
\newlabel{fig::delauney}{{6}{7}}
\newlabel{fig::delauney@cref}{{[figure][6][]6}{7}}
\@writefile{lof}{\contentsline {figure}{\numberline {7}{\ignorespaces Voronoi diagram construction (google image search).}}{7}}
\newlabel{fig::voronoi}{{7}{7}}
\newlabel{fig::voronoi@cref}{{[figure][7][]7}{7}}
\@writefile{toc}{\contentsline {section}{\numberline {6}Concluding remarks}{7}}
